[gd_scene load_steps=8 format=2]

[ext_resource path="res://World/UI/Frames/OverlayBackground/top_bot_background.png" type="Texture" id=1]
[ext_resource path="res://World/UI/Frames/OverlayBackground/floor.png" type="Texture" id=2]
[ext_resource path="res://World/UI/Frames/OverlayBackground/side_background.png" type="Texture" id=3]
[ext_resource path="res://World/UI/Frames/OverlayBackground/bottom_left_background.png" type="Texture" id=4]
[ext_resource path="res://World/UI/Frames/OverlayBackground/bottom_right_background.png" type="Texture" id=5]
[ext_resource path="res://World/UI/Frames/OverlayBackground/top_right_background.png" type="Texture" id=6]
[ext_resource path="res://World/UI/Frames/OverlayBackground/top_left_background.png" type="Texture" id=7]

[node name="OverlayBackground" type="Control"]
anchor_right = 1.0
anchor_bottom = 1.0
__meta__ = {
"_edit_use_anchors_": false
}

[node name="Floor" type="TextureRect" parent="."]
anchor_right = 1.0
anchor_bottom = 1.0
texture = ExtResource( 2 )
stretch_mode = 2
__meta__ = {
"_edit_use_anchors_": false
}

[node name="Bottom" type="TextureRect" parent="."]
anchor_top = 1.0
anchor_right = 1.0
anchor_bottom = 1.0
margin_top = -32.0
texture = ExtResource( 1 )
expand = true
stretch_mode = 2

[node name="Top" type="TextureRect" parent="."]
anchor_right = 1.0
margin_bottom = 32.0
texture = ExtResource( 1 )
expand = true
stretch_mode = 2
__meta__ = {
"_edit_use_anchors_": false
}

[node name="Left" type="TextureRect" parent="."]
anchor_bottom = 1.0
margin_right = 21.0
texture = ExtResource( 3 )
stretch_mode = 2
__meta__ = {
"_edit_use_anchors_": false
}

[node name="Right" type="TextureRect" parent="."]
anchor_left = 1.0
anchor_right = 1.0
anchor_bottom = 1.0
margin_left = -21.0
texture = ExtResource( 3 )
stretch_mode = 2
__meta__ = {
"_edit_use_anchors_": false
}

[node name="BottomLeft" type="TextureRect" parent="."]
anchor_top = 1.0
anchor_bottom = 1.0
margin_top = -32.0
margin_right = 30.0
texture = ExtResource( 4 )
__meta__ = {
"_edit_use_anchors_": false
}

[node name="BottomRight" type="TextureRect" parent="."]
anchor_left = 1.0
anchor_top = 1.0
anchor_right = 1.0
anchor_bottom = 1.0
margin_left = -21.0
margin_top = -32.0
texture = ExtResource( 5 )
__meta__ = {
"_edit_use_anchors_": false
}

[node name="TopRight" type="TextureRect" parent="."]
anchor_left = 1.0
anchor_right = 1.0
margin_left = -21.0
margin_bottom = 32.0
texture = ExtResource( 6 )
__meta__ = {
"_edit_use_anchors_": false
}

[node name="TopLeft" type="TextureRect" parent="."]
margin_right = 21.0
margin_bottom = 32.0
texture = ExtResource( 7 )
__meta__ = {
"_edit_use_anchors_": false
}
