[gd_scene load_steps=2 format=2]

[ext_resource path="res://Entities/Weapons/NailedBat/nailed_bat.png" type="Texture" id=1]

[node name="Nailed Bat" type="TextureRect"]
anchor_left = 0.5
anchor_top = 0.5
anchor_right = 0.5
anchor_bottom = 0.5
margin_left = -5.0
margin_top = -11.0
margin_right = 5.0
margin_bottom = 11.0
texture = ExtResource( 1 )
__meta__ = {
"_edit_use_anchors_": false
}
