[gd_scene load_steps=7 format=2]

[ext_resource path="res://Entities/Loots/Loot.tscn" type="PackedScene" id=1]
[ext_resource path="res://World/UI/HUD/HealthBarUI/ui_heart_full.png" type="Texture" id=2]
[ext_resource path="res://Entities/Loots/Heart/Heart.cs" type="Script" id=3]

[sub_resource type="CircleShape2D" id=1]
radius = 30.3953

[sub_resource type="CircleShape2D" id=2]
radius = 8.81028

[sub_resource type="CircleShape2D" id=3]
radius = 3.13182

[node name="Heart" instance=ExtResource( 1 )]
script = ExtResource( 3 )

[node name="Sprite" parent="." index="0"]
texture = ExtResource( 2 )
offset = Vector2( 0.5, 2.5 )

[node name="CollisionShape2D" parent="DetectArea" index="0"]
shape = SubResource( 1 )

[node name="CollisionShape2D" parent="LootArea" index="0"]
shape = SubResource( 2 )

[node name="Collider" parent="." index="4"]
shape = SubResource( 3 )

[editable path="DetectArea"]
[editable path="LootArea"]
