{
    "0" : {"character": "Death", "name": "Death", "text": "I guess it was you or them ... Well it doesn't  matter anymore !"},
    "1" : {"character": "Death", "name": "Death", "text": "I wish you may go on with the killing, you're pretty skilled in this."},
    "2" : {"character": "Death", "name": "Death", "text": "Kill orcs, kill demons, kill zombies."},
    "3" : {"character": "Death", "name": "Death", "text": "Kill the Conquest, kill the War, kill the Famine !"},
    "4" : {"character": "Death", "name": "Death", "text": "Fight your way deeper and deeper, and you might kill Death itself !"},
    "5" : {"character": "Death", "name": "Death", "text": "See you !"}
}