[gd_scene load_steps=5 format=2]

[ext_resource path="res://Entities/Weapons/WeaponReference.tscn" type="PackedScene" id=1]
[ext_resource path="res://Entities/Weapons/RegularSword/RegularSword.cs" type="Script" id=2]
[ext_resource path="res://Entities/Weapons/RegularSword/weapon_regular_sword.png" type="Texture" id=3]

[sub_resource type="CapsuleShape2D" id=1]
radius = 6.57781
height = 22.2649

[node name="Regular Sword" instance=ExtResource( 1 )]
z_index = 1
script = ExtResource( 2 )
dashSpeed = 200
dashDuration = 0.2

[node name="Sprite" type="Sprite" parent="." index="0"]
texture = ExtResource( 3 )

[node name="Hitbox" parent="." index="1"]
Damage = 3
KnockbackStrength = 1200
SourceOfDamage = "Sword's swing"

[node name="CollisionShape2D" parent="Hitbox" index="0"]
position = Vector2( 0, 6.279 )
shape = SubResource( 1 )
disabled = true

[editable path="Hitbox"]
