[gd_scene load_steps=2 format=2]

[ext_resource path="res://Entities/Weapons/Spear/spear.png" type="Texture" id=1]

[node name="Spear" type="TextureRect"]
anchor_left = 0.5
anchor_top = 0.5
anchor_right = 0.5
anchor_bottom = 0.5
margin_left = -3.0
margin_top = -15.0
margin_right = 3.0
margin_bottom = 15.0
texture = ExtResource( 1 )
__meta__ = {
"_edit_use_anchors_": false
}
