[gd_scene load_steps=5 format=2]

[ext_resource path="res://Entities/Weapons/RustySword/weapon_rusty_sword.png" type="Texture" id=1]
[ext_resource path="res://Entities/Weapons/WeaponReference.tscn" type="PackedScene" id=2]
[ext_resource path="res://Entities/Weapons/RustySword/RustySword.cs" type="Script" id=3]

[sub_resource type="CapsuleShape2D" id=1]
radius = 5.93345
height = 23.3888

[node name="Rusty Sword" instance=ExtResource( 2 )]
script = ExtResource( 3 )

[node name="Sprite" type="Sprite" parent="." index="0"]
z_index = 1
z_as_relative = false
texture = ExtResource( 1 )

[node name="Hitbox" parent="." index="1"]
SourceOfDamage = "Lame swing"

[node name="CollisionShape2D" parent="Hitbox" index="0"]
position = Vector2( 0, 6.3 )
shape = SubResource( 1 )
disabled = true

[editable path="Hitbox"]
