[gd_scene load_steps=8 format=2]

[ext_resource path="res://World/Levels/Rooms/RoomBase.tscn" type="PackedScene" id=1]
[ext_resource path="res://Entities/Furnitures/Stairs/Stairs.tscn" type="PackedScene" id=2]
[ext_resource path="res://Entities/Furnitures/Crate/Crate.tscn" type="PackedScene" id=3]
[ext_resource path="res://Entities/Enemies/OrcWarrior/OrcWarrior.tscn" type="PackedScene" id=4]
[ext_resource path="res://Entities/Enemies/Goblin/Goblin.tscn" type="PackedScene" id=5]
[ext_resource path="res://Entities/Furnitures/Chest/Chest.tscn" type="PackedScene" id=6]
[ext_resource path="res://Entities/Enemies/Troll/Troll.tscn" type="PackedScene" id=7]

[node name="Room10" instance=ExtResource( 1 )]

[node name="WallTileMap" parent="." index="1"]
tile_data = PoolIntArray( 0, 0, 0, 1, 0, 1, 2, 0, 1, 3, 0, 1, 4, 0, 1, 5, 0, 1, 6, 0, 2, 9, 0, 0, 10, 0, 1, 11, 0, 1, 12, 0, 1, 13, 0, 1, 14, 0, 1, 15, 0, 2, 65536, 0, 65536, 65537, 0, 65541, 65538, 0, 131073, 65539, 0, 131073, 65540, 0, 131073, 65541, 0, 131073, 65542, 0, 131074, 65545, 0, 65536, 65546, 0, 65541, 65547, 0, 131073, 65548, 0, 131073, 65549, 0, 131073, 65550, 0, 65542, 65551, 0, 65538, 131072, 0, 65536, 131073, 0, 65538, 131080, 0, 0, 131081, 0, 131078, 131082, 0, 65538, 131086, 0, 65536, 131087, 0, 65538, 196608, 0, 65536, 196609, 0, 65538, 196613, 0, 0, 196614, 0, 1, 196615, 0, 1, 196616, 0, 131078, 196617, 0, 65541, 196618, 0, 131074, 196622, 0, 65536, 196623, 0, 65538, 262144, 0, 65536, 262145, 0, 65538, 262149, 0, 131072, 262150, 0, 131073, 262151, 0, 65542, 262152, 0, 65541, 262153, 0, 131074, 262158, 0, 65536, 262159, 0, 65538, 327680, 0, 65536, 327681, 0, 131077, 327682, 0, 1, 327683, 0, 2, 327687, 0, 65536, 327688, 0, 65538, 327691, 0, 0, 327692, 0, 2, 327694, 0, 65536, 327695, 0, 65538, 393216, 0, 131072, 393217, 0, 131073, 393218, 0, 65542, 393219, 0, 131077, 393220, 0, 2, 393223, 0, 65536, 393224, 0, 65538, 393227, 0, 65536, 393228, 0, 65538, 393230, 0, 131072, 393231, 0, 131074, 458754, 0, 131072, 458755, 0, 65542, 458756, 0, 65538, 458759, 0, 65536, 458760, 0, 65538, 458763, 0, 65536, 458764, 0, 65538, 524291, 0, 65536, 524292, 0, 65538, 524295, 0, 131072, 524296, 0, 131074, 524299, 0, 65536, 524300, 0, 65538, 589824, 0, 0, 589825, 0, 2, 589827, 0, 65536, 589828, 0, 65538, 589835, 0, 65536, 589836, 0, 65538, 589838, 0, 0, 589839, 0, 2, 655360, 0, 65536, 655361, 0, 65538, 655363, 0, 65536, 655364, 0, 65538, 655371, 0, 65536, 655372, 0, 65538, 655374, 0, 65536, 655375, 0, 65538, 720896, 0, 65536, 720897, 0, 65538, 720899, 0, 65536, 720900, 0, 131077, 720901, 0, 1, 720902, 0, 1, 720903, 0, 1, 720904, 0, 1, 720905, 0, 1, 720906, 0, 1, 720907, 0, 131078, 720908, 0, 65538, 720910, 0, 65536, 720911, 0, 65538, 786432, 0, 65536, 786433, 0, 65538, 786435, 0, 131072, 786436, 0, 131073, 786437, 0, 131073, 786438, 0, 131073, 786439, 0, 131073, 786440, 0, 131073, 786441, 0, 131073, 786442, 0, 131073, 786443, 0, 131073, 786444, 0, 131074, 786446, 0, 65536, 786447, 0, 65538, 851968, 0, 65536, 851969, 0, 65538, 851982, 0, 65536, 851983, 0, 65538, 917504, 0, 65536, 917505, 0, 131077, 917506, 0, 1, 917507, 0, 1, 917508, 0, 1, 917509, 0, 1, 917510, 0, 2, 917513, 0, 0, 917514, 0, 1, 917515, 0, 1, 917516, 0, 1, 917517, 0, 1, 917518, 0, 131078, 917519, 0, 65538, 983040, 0, 131072, 983041, 0, 131073, 983042, 0, 131073, 983043, 0, 131073, 983044, 0, 131073, 983045, 0, 131073, 983046, 0, 131074, 983049, 0, 131072, 983050, 0, 131073, 983051, 0, 131073, 983052, 0, 131073, 983053, 0, 131073, 983054, 0, 131073, 983055, 0, 131074 )

[node name="Stairs" parent="ExitContent" index="0" instance=ExtResource( 2 )]
position = Vector2( 56, 56 )

[node name="Crate" parent="AbsoluteContent" index="0" instance=ExtResource( 3 )]
position = Vector2( 127, 145 )
Amount = 2

[node name="Crate2" parent="AbsoluteContent" index="1" instance=ExtResource( 3 )]
position = Vector2( 132.466, 156.142 )
Amount = 4

[node name="Crate3" parent="AbsoluteContent" index="2" instance=ExtResource( 3 )]
position = Vector2( 123.847, 162.869 )
Amount = 2

[node name="Crate4" parent="AbsoluteContent" index="3" instance=ExtResource( 3 )]
position = Vector2( 130.153, 171.698 )
Amount = 3

[node name="Goblin" parent="RelativeContent0" index="0" instance=ExtResource( 5 )]
position = Vector2( 44.4472, 45.2409 )

[node name="Goblin2" parent="RelativeContent0" index="1" instance=ExtResource( 5 )]
position = Vector2( 48.8126, 65.8771 )

[node name="Goblin3" parent="RelativeContent0" index="2" instance=ExtResource( 5 )]
position = Vector2( 69.8456, 46.0346 )

[node name="Goblin4" parent="RelativeContent0" index="3" instance=ExtResource( 5 )]
position = Vector2( 67.0677, 62.7023 )

[node name="Goblin5" parent="RelativeContent0" index="4" instance=ExtResource( 5 )]
position = Vector2( 193.266, 46.8283 )

[node name="Goblin6" parent="RelativeContent0" index="5" instance=ExtResource( 5 )]
position = Vector2( 212.315, 44.4472 )

[node name="Goblin7" parent="RelativeContent0" index="6" instance=ExtResource( 5 )]
position = Vector2( 202.394, 60.3212 )

[node name="Goblin8" parent="RelativeContent0" index="7" instance=ExtResource( 5 )]
position = Vector2( 40.4787, 205.172 )

[node name="Goblin9" parent="RelativeContent0" index="8" instance=ExtResource( 5 )]
position = Vector2( 46.8283, 217.871 )

[node name="Goblin10" parent="RelativeContent0" index="9" instance=ExtResource( 5 )]
position = Vector2( 49.6062, 209.537 )

[node name="RelativeContent1" parent="." index="5"]
visible = false

[node name="OrcWarrior" parent="RelativeContent1" index="0" instance=ExtResource( 4 )]
position = Vector2( 42.8598, 215.49 )

[node name="OrcWarrior2" parent="RelativeContent1" index="1" instance=ExtResource( 4 )]
position = Vector2( 221.046, 216.283 )

[node name="OrcWarrior3" parent="RelativeContent1" index="2" instance=ExtResource( 4 )]
position = Vector2( 43.2567, 44.8441 )

[node name="OrcWarrior4" parent="RelativeContent1" index="3" instance=ExtResource( 4 )]
position = Vector2( 67.4645, 67.8614 )

[node name="Goblin" parent="RelativeContent1" index="4" instance=ExtResource( 5 )]
position = Vector2( 192.076, 42.8598 )

[node name="Goblin2" parent="RelativeContent1" index="5" instance=ExtResource( 5 )]
position = Vector2( 195.647, 58.337 )

[node name="Goblin3" parent="RelativeContent1" index="6" instance=ExtResource( 5 )]
position = Vector2( 205.965, 41.6693 )

[node name="Goblin4" parent="RelativeContent1" index="7" instance=ExtResource( 5 )]
position = Vector2( 213.505, 57.9401 )

[node name="Crate" parent="RelativeContent1" index="8" instance=ExtResource( 3 )]
position = Vector2( 77.3858, 221.046 )
Amount = 1

[node name="Crate2" parent="RelativeContent1" index="9" instance=ExtResource( 3 )]
position = Vector2( 82.148, 211.124 )
Amount = 0

[node name="RelativeContent2" parent="." index="6"]
visible = false

[node name="Troll" parent="RelativeContent2" index="0" instance=ExtResource( 7 )]
position = Vector2( 162.312, 135.326 )

[node name="Chest" parent="RelativeContent2" index="1" instance=ExtResource( 6 )]
position = Vector2( 176.598, 170.646 )
Amount = 20

[node name="OrcWarrior" parent="RelativeContent2" index="2" instance=ExtResource( 4 )]
position = Vector2( 44.8441, 45.2409 )

[node name="OrcWarrior2" parent="RelativeContent2" index="3" instance=ExtResource( 4 )]
position = Vector2( 50.7968, 67.4645 )

[node name="OrcWarrior3" parent="RelativeContent2" index="4" instance=ExtResource( 4 )]
position = Vector2( 64.6866, 49.6063 )

[node name="OrcWarrior4" parent="RelativeContent2" index="5" instance=ExtResource( 4 )]
position = Vector2( 46.0346, 205.568 )

[node name="OrcWarrior5" parent="RelativeContent2" index="6" instance=ExtResource( 4 )]
position = Vector2( 54.7653, 215.887 )

[node name="Crate" parent="RelativeContent2" index="7" instance=ExtResource( 3 )]
position = Vector2( 226.205, 85.3228 )
Amount = 2

[node name="Crate2" parent="RelativeContent2" index="8" instance=ExtResource( 3 )]
position = Vector2( 213.505, 78.9732 )
Amount = 0
