[gd_scene load_steps=7 format=2]

[ext_resource path="res://Entities/Loots/Loot.tscn" type="PackedScene" id=1]
[ext_resource path="res://Entities/Loots/GoldenKey/golden_key.png" type="Texture" id=2]
[ext_resource path="res://Entities/Loots/GoldenKey/GoldenKey.cs" type="Script" id=3]

[sub_resource type="CircleShape2D" id=1]
radius = 34.4891

[sub_resource type="CircleShape2D" id=2]

[sub_resource type="CircleShape2D" id=3]
radius = 5.96139

[node name="GoldenKey" instance=ExtResource( 1 )]
script = ExtResource( 3 )

[node name="Sprite" parent="." index="0"]
texture = ExtResource( 2 )

[node name="CollisionShape2D" parent="DetectArea" index="0"]
shape = SubResource( 1 )

[node name="CollisionShape2D" parent="LootArea" index="0"]
shape = SubResource( 2 )

[node name="Collider" parent="." index="4"]
visible = false
shape = SubResource( 3 )

[editable path="DetectArea"]
[editable path="LootArea"]
