[gd_scene load_steps=12 format=2]

[ext_resource path="res://World/Levels/Rooms/RoomBase.tscn" type="PackedScene" id=1]
[ext_resource path="res://Entities/Furnitures/Door/Door.tscn" type="PackedScene" id=2]
[ext_resource path="res://Entities/Furnitures/Switch/Switch.tscn" type="PackedScene" id=3]
[ext_resource path="res://Entities/Furnitures/Pillar/Pillar.tscn" type="PackedScene" id=4]
[ext_resource path="res://Entities/Furnitures/Stairs/Stairs.tscn" type="PackedScene" id=5]
[ext_resource path="res://Entities/Enemies/Goblin/Goblin.tscn" type="PackedScene" id=6]
[ext_resource path="res://Entities/Enemies/OrcWarrior/OrcWarrior.tscn" type="PackedScene" id=7]
[ext_resource path="res://World/Levels/Rooms/Room2/Room2DoorLogic.cs" type="Script" id=8]
[ext_resource path="res://Entities/Furnitures/Chest/Chest.tscn" type="PackedScene" id=9]
[ext_resource path="res://Entities/Enemies/Troll/Troll.tscn" type="PackedScene" id=10]
[ext_resource path="res://Entities/Furnitures/Crate/Crate.tscn" type="PackedScene" id=11]

[node name="Room2" instance=ExtResource( 1 )]

[node name="FloorTileMap" parent="." index="0"]
visible = false
tile_data = PoolIntArray( 0, 0, 0, 1, 0, 2, 2, 0, 0, 3, 0, 0, 4, 0, 0, 5, 0, 0, 6, 0, 1, 7, 0, 0, 8, 0, 0, 9, 0, 0, 10, 0, 1, 11, 0, 0, 12, 0, 0, 13, 0, 2, 14, 0, 0, 15, 0, 2, 65536, 0, 1, 65537, 0, 4, 65538, 0, 0, 65539, 0, 0, 65540, 0, 0, 65541, 0, 2, 65542, 0, 0, 65543, 0, 1, 65544, 0, 1, 65545, 0, 7, 65546, 0, 0, 65547, 0, 0, 65548, 0, 4, 65549, 0, 2, 65550, 0, 2, 65551, 0, 0, 131072, 0, 0, 131073, 0, 2, 131074, 0, 0, 131075, 0, 0, 131076, 0, 4, 131077, 0, 1, 131078, 0, 6, 131079, 0, 5, 131080, 0, 1, 131081, 0, 2, 131082, 0, 1, 131083, 0, 0, 131084, 0, 1, 131085, 0, 5, 131086, 0, 4, 131087, 0, 4, 196608, 0, 7, 196609, 0, 4, 196610, 0, 1, 196611, 0, 0, 196612, 0, 0, 196613, 0, 1, 196614, 0, 1, 196615, 0, 3, 196616, 0, 1, 196617, 0, 0, 196618, 0, 0, 196619, 0, 1, 196620, 0, 0, 196621, 0, 0, 196622, 0, 0, 196623, 0, 6, 262144, 0, 0, 262145, 0, 2, 262146, 0, 0, 262147, 0, 2, 262148, 0, 0, 262149, 0, 0, 262150, 0, 7, 262151, 0, 0, 262152, 0, 0, 262153, 0, 1, 262154, 0, 1, 262155, 0, 5, 262156, 0, 0, 262157, 0, 1, 262158, 0, 4, 262159, 0, 1, 327680, 0, 0, 327681, 0, 0, 327682, 0, 0, 327683, 0, 5, 327684, 0, 0, 327685, 0, 0, 327686, 0, 0, 327687, 0, 0, 327688, 0, 0, 327689, 0, 0, 327690, 0, 0, 327691, 0, 1, 327692, 0, 0, 327693, 0, 2, 327694, 0, 0, 327695, 0, 0, 393216, 0, 0, 393217, 0, 3, 393218, 0, 2, 393219, 0, 4, 393220, 0, 0, 393221, 0, 1, 393222, 0, 4, 393223, 0, 0, 393224, 0, 2, 393225, 0, 4, 393226, 0, 2, 393227, 0, 5, 393228, 0, 0, 393229, 0, 2, 393230, 0, 0, 393231, 0, 0, 458752, 0, 0, 458753, 0, 0, 458754, 0, 0, 458755, 0, 2, 458756, 0, 0, 458757, 0, 0, 458758, 0, 0, 458759, 0, 0, 458760, 0, 0, 458761, 0, 6, 458762, 0, 2, 458763, 0, 4, 458764, 0, 0, 458765, 0, 0, 458766, 0, 2, 458767, 0, 2, 524288, 0, 0, 524289, 0, 0, 524290, 0, 0, 524291, 0, 0, 524292, 0, 0, 524293, 0, 4, 524294, 0, 4, 524295, 0, 0, 524296, 0, 0, 524297, 0, 0, 524298, 0, 0, 524299, 0, 1, 524300, 0, 2, 524301, 0, 0, 524302, 0, 1, 524303, 0, 0, 589824, 0, 0, 589825, 0, 0, 589826, 0, 1, 589827, 0, 0, 589828, 0, 0, 589829, 0, 0, 589830, 0, 4, 589831, 0, 0, 589832, 0, 0, 589833, 0, 1, 589834, 0, 0, 589835, 0, 0, 589836, 0, 0, 589837, 0, 4, 589838, 0, 1, 589839, 0, 4, 655360, 0, 0, 655361, 0, 4, 655362, 0, 0, 655363, 0, 0, 655364, 0, 0, 655365, 0, 0, 655366, 0, 4, 655367, 0, 0, 655368, 0, 0, 655369, 0, 0, 655370, 0, 4, 655371, 0, 0, 655372, 0, 2, 655373, 0, 0, 655374, 0, 4, 655375, 0, 1, 720896, 0, 0, 720897, 0, 3, 720898, 0, 2, 720899, 0, 0, 720900, 0, 0, 720901, 0, 0, 720902, 0, 5, 720903, 0, 4, 720904, 0, 0, 720905, 0, 0, 720906, 0, 5, 720907, 0, 0, 720908, 0, 0, 720909, 0, 4, 720910, 0, 4, 720911, 0, 4, 786432, 0, 5, 786433, 0, 0, 786434, 0, 0, 786435, 0, 4, 786436, 0, 0, 786437, 0, 1, 786438, 0, 0, 786439, 0, 0, 786440, 0, 2, 786441, 0, 1, 786442, 0, 0, 786443, 0, 3, 786444, 0, 0, 786445, 0, 1, 786446, 0, 0, 786447, 0, 0, 851968, 0, 4, 851969, 0, 0, 851970, 0, 0, 851971, 0, 4, 851972, 0, 0, 851973, 0, 4, 851974, 0, 4, 851975, 0, 0, 851976, 0, 4, 851977, 0, 2, 851978, 0, 0, 851979, 0, 0, 851980, 0, 2, 851981, 0, 2, 851982, 0, 0, 851983, 0, 0, 917504, 0, 0, 917505, 0, 0, 917506, 0, 3, 917507, 0, 0, 917508, 0, 0, 917509, 0, 0, 917510, 0, 2, 917511, 0, 0, 917512, 0, 0, 917513, 0, 4, 917514, 0, 2, 917515, 0, 0, 917516, 0, 1, 917517, 0, 2, 917518, 0, 0, 917519, 0, 1, 983040, 0, 2, 983041, 0, 0, 983042, 0, 0, 983043, 0, 0, 983044, 0, 1, 983045, 0, 0, 983046, 0, 6, 983047, 0, 1, 983048, 0, 2, 983049, 0, 4, 983050, 0, 1, 983051, 0, 0, 983052, 0, 2, 983053, 0, 0, 983054, 0, 0, 983055, 0, 2 )

[node name="WallTileMap" parent="." index="1"]
tile_data = PoolIntArray( 0, 0, 0, 1, 0, 1, 2, 0, 1, 3, 0, 1, 4, 0, 1, 5, 0, 1, 6, 0, 2, 9, 0, 0, 10, 0, 1, 11, 0, 1, 12, 0, 1, 13, 0, 1, 14, 0, 1, 15, 0, 2, 65536, 0, 65536, 65537, 0, 65541, 65538, 0, 131073, 65539, 0, 131073, 65540, 0, 131073, 65541, 0, 131073, 65542, 0, 131074, 65545, 0, 65536, 65546, 0, 65541, 65547, 0, 131073, 65548, 0, 131073, 65549, 0, 131073, 65550, 0, 65542, 65551, 0, 65538, 131072, 0, 65536, 131073, 0, 65538, 131081, 0, 65536, 131082, 0, 65538, 131086, 0, 65536, 131087, 0, 65538, 196608, 0, 65536, 196609, 0, 65538, 196611, 0, 0, 196612, 0, 1, 196613, 0, 1, 196614, 0, 2, 196617, 0, 65536, 196618, 0, 131077, 196619, 0, 1, 196620, 0, 2, 196622, 0, 65536, 196623, 0, 65538, 262144, 0, 65536, 262145, 0, 65538, 262147, 0, 65536, 262148, 0, 65541, 262149, 0, 131073, 262150, 0, 131074, 262153, 0, 131072, 262154, 0, 131073, 262155, 0, 65542, 262156, 0, 65538, 262158, 0, 65536, 262159, 0, 65538, 327680, 0, 65536, 327681, 0, 65538, 327683, 0, 65536, 327684, 0, 65538, 327691, 0, 65536, 327692, 0, 65538, 327694, 0, 65536, 327695, 0, 65538, 393216, 0, 131072, 393217, 0, 131074, 393219, 0, 65536, 393220, 0, 65538, 393227, 0, 65536, 393228, 0, 65538, 393230, 0, 131072, 393231, 0, 131074, 458755, 0, 65536, 458756, 0, 131077, 458757, 0, 1, 458758, 0, 2, 458761, 0, 0, 458762, 0, 1, 458763, 0, 131078, 458764, 0, 65538, 524291, 0, 65536, 524292, 0, 65541, 524293, 0, 131073, 524294, 0, 131074, 524297, 0, 131072, 524298, 0, 131073, 524299, 0, 65542, 524300, 0, 65538, 589824, 0, 0, 589825, 0, 2, 589827, 0, 65536, 589828, 0, 65538, 589835, 0, 65536, 589836, 0, 65538, 589838, 0, 0, 589839, 0, 2, 655360, 0, 65536, 655361, 0, 65538, 655363, 0, 65536, 655364, 0, 65538, 655371, 0, 65536, 655372, 0, 65538, 655374, 0, 65536, 655375, 0, 65538, 720896, 0, 65536, 720897, 0, 65538, 720899, 0, 65536, 720900, 0, 131077, 720901, 0, 1, 720902, 0, 2, 720905, 0, 0, 720906, 0, 1, 720907, 0, 131078, 720908, 0, 65538, 720910, 0, 65536, 720911, 0, 65538, 786432, 0, 65536, 786433, 0, 65538, 786435, 0, 131072, 786436, 0, 131073, 786437, 0, 65542, 786438, 0, 65538, 786441, 0, 131072, 786442, 0, 131073, 786443, 0, 131073, 786444, 0, 131074, 786446, 0, 65536, 786447, 0, 65538, 851968, 0, 65536, 851969, 0, 65538, 851973, 0, 65536, 851974, 0, 65538, 851982, 0, 65536, 851983, 0, 65538, 917504, 0, 65536, 917505, 0, 131077, 917506, 0, 1, 917507, 0, 1, 917508, 0, 1, 917509, 0, 131078, 917510, 0, 65538, 917513, 0, 0, 917514, 0, 1, 917515, 0, 1, 917516, 0, 1, 917517, 0, 1, 917518, 0, 131078, 917519, 0, 65538, 983040, 0, 131072, 983041, 0, 131073, 983042, 0, 131073, 983043, 0, 131073, 983044, 0, 131073, 983045, 0, 131073, 983046, 0, 131074, 983049, 0, 131072, 983050, 0, 131073, 983051, 0, 131073, 983052, 0, 131073, 983053, 0, 131073, 983054, 0, 131073, 983055, 0, 131074 )

[node name="Stairs" parent="ExitContent" index="0" instance=ExtResource( 5 )]
position = Vector2( 88, 96 )

[node name="Pillar" parent="AbsoluteContent" index="0" instance=ExtResource( 4 )]
position = Vector2( 88, 152 )

[node name="Pillar2" parent="AbsoluteContent" index="1" instance=ExtResource( 4 )]
position = Vector2( 180, 152 )

[node name="DoorLogic" type="YSort" parent="AbsoluteContent" index="2"]
script = ExtResource( 8 )

[node name="Door" parent="AbsoluteContent/DoorLogic" index="0" instance=ExtResource( 2 )]
position = Vector2( 133.5, 124 )
KeyRequired = false

[node name="SwitchLeft" parent="AbsoluteContent/DoorLogic" index="1" instance=ExtResource( 3 )]
position = Vector2( 80, 216 )

[node name="SwitchRight" parent="AbsoluteContent/DoorLogic" index="2" instance=ExtResource( 3 )]
position = Vector2( 184, 40 )

[node name="Goblin" parent="RelativeContent0" index="0" instance=ExtResource( 6 )]
position = Vector2( 120, 88 )

[node name="Goblin2" parent="RelativeContent0" index="1" instance=ExtResource( 6 )]
position = Vector2( 128, 96 )

[node name="Goblin3" parent="RelativeContent0" index="2" instance=ExtResource( 6 )]
position = Vector2( 136, 88 )

[node name="Goblin4" parent="RelativeContent0" index="3" instance=ExtResource( 6 )]
position = Vector2( 120, 160 )

[node name="Goblin5" parent="RelativeContent0" index="4" instance=ExtResource( 6 )]
position = Vector2( 128, 152 )

[node name="Goblin6" parent="RelativeContent0" index="5" instance=ExtResource( 6 )]
position = Vector2( 136, 160 )

[node name="Goblin7" parent="RelativeContent0" index="6" instance=ExtResource( 6 )]
position = Vector2( 72, 216 )

[node name="Goblin8" parent="RelativeContent0" index="7" instance=ExtResource( 6 )]
position = Vector2( 64, 208 )

[node name="Goblin9" parent="RelativeContent0" index="8" instance=ExtResource( 6 )]
position = Vector2( 184, 32 )

[node name="Goblin10" parent="RelativeContent0" index="9" instance=ExtResource( 6 )]
position = Vector2( 216, 40 )

[node name="Chest" parent="RelativeContent0" index="10" instance=ExtResource( 9 )]
position = Vector2( 175.308, 95.8238 )

[node name="OrcWarrior" parent="RelativeContent1" index="0" instance=ExtResource( 7 )]
position = Vector2( 136, 96 )

[node name="OrcWarrior2" parent="RelativeContent1" index="1" instance=ExtResource( 7 )]
position = Vector2( 120, 104 )

[node name="OrcWarrior3" parent="RelativeContent1" index="2" instance=ExtResource( 7 )]
position = Vector2( 48, 216 )

[node name="OrcWarrior4" parent="RelativeContent1" index="3" instance=ExtResource( 7 )]
position = Vector2( 216, 40 )

[node name="Goblin" parent="RelativeContent1" index="4" instance=ExtResource( 6 )]
position = Vector2( 120, 160 )

[node name="Goblin2" parent="RelativeContent1" index="5" instance=ExtResource( 6 )]
position = Vector2( 112, 168 )

[node name="Goblin3" parent="RelativeContent1" index="6" instance=ExtResource( 6 )]
position = Vector2( 144, 160 )

[node name="Goblin4" parent="RelativeContent1" index="7" instance=ExtResource( 6 )]
position = Vector2( 136, 152 )

[node name="Chest" parent="RelativeContent1" index="8" instance=ExtResource( 9 )]
position = Vector2( 176, 96 )

[node name="Troll" parent="RelativeContent2" index="0" instance=ExtResource( 10 )]
position = Vector2( 136, 160 )

[node name="Crate" parent="RelativeContent2" index="1" instance=ExtResource( 11 )]
position = Vector2( 89.3243, 82.1189 )
Type = 1

[node name="Crate2" parent="RelativeContent2" index="2" instance=ExtResource( 11 )]
position = Vector2( 92.5027, 107.016 )
Type = 1

[node name="Pillar3" parent="RelativeContent2" index="3" instance=ExtResource( 4 )]
position = Vector2( 180, 88 )
